EESchema Schematic File Version 2
LIBS:power
LIBS:device
LIBS:transistors
LIBS:conn
LIBS:linear
LIBS:regul
LIBS:74xx
LIBS:cmos4000
LIBS:adc-dac
LIBS:memory
LIBS:xilinx
LIBS:microcontrollers
LIBS:dsp
LIBS:microchip
LIBS:analog_switches
LIBS:motorola
LIBS:texas
LIBS:intel
LIBS:audio
LIBS:interface
LIBS:digital-audio
LIBS:philips
LIBS:display
LIBS:cypress
LIBS:siliconi
LIBS:opto
LIBS:atmel
LIBS:contrib
LIBS:valves
LIBS:ESP32-footprints-new
LIBS:CP2104
LIBS:mic5353_3v3
LIBS:esp3212-module-board-cache
LIBS:ESP32-footprints-Shem-Lib
LIBS:esp32-wroom-board-cache
EELAYER 25 0
EELAYER END
$Descr A2 23386 16535
encoding utf-8
Sheet 1 1
Title ""
Date ""
Rev ""
Comp ""
Comment1 ""
Comment2 ""
Comment3 ""
Comment4 ""
$EndDescr
$Comp
L GND #PWR01
U 1 1 57CF58B1
P 8100 6150
F 0 "#PWR01" H 8100 5900 50  0001 C CNN
F 1 "GND" H 8100 6000 50  0000 C CNN
F 2 "" H 8100 6150 50  0000 C CNN
F 3 "" H 8100 6150 50  0000 C CNN
	1    8100 6150
	0    1    1    0   
$EndComp
$Comp
L R R1
U 1 1 57CF58C9
P 9150 6300
F 0 "R1" V 9230 6300 50  0000 C CNN
F 1 "10k" V 9150 6300 50  0000 C CNN
F 2 "Resistors_SMD:R_0603" V 9080 6300 50  0001 C CNN
F 3 "" H 9150 6300 50  0000 C CNN
	1    9150 6300
	1    0    0    -1  
$EndComp
$Comp
L +3.3V #PWR02
U 1 1 57CF591A
P 9150 6050
F 0 "#PWR02" H 9150 5900 50  0001 C CNN
F 1 "+3.3V" H 9150 6190 50  0000 C CNN
F 2 "" H 9150 6050 50  0000 C CNN
F 3 "" H 9150 6050 50  0000 C CNN
	1    9150 6050
	1    0    0    -1  
$EndComp
$Comp
L SW_PUSH SW1
U 1 1 57CF593F
P 8500 6150
F 0 "SW1" H 8650 6260 50  0000 C CNN
F 1 "program" H 8500 6070 50  0000 C CNN
F 2 "Buttons_Switches_SMD:SW_SPST_B3S-1000" H 8500 6150 50  0001 C CNN
F 3 "" H 8500 6150 50  0000 C CNN
	1    8500 6150
	1    0    0    -1  
$EndComp
$Comp
L GND #PWR03
U 1 1 57CF5C4A
P 10600 6000
F 0 "#PWR03" H 10600 5750 50  0001 C CNN
F 1 "GND" H 10600 5850 50  0000 C CNN
F 2 "" H 10600 6000 50  0000 C CNN
F 3 "" H 10600 6000 50  0000 C CNN
	1    10600 6000
	-1   0    0    1   
$EndComp
$Comp
L GND #PWR04
U 1 1 57CF5C82
P 11100 7950
F 0 "#PWR04" H 11100 7700 50  0001 C CNN
F 1 "GND" H 11100 7800 50  0000 C CNN
F 2 "" H 11100 7950 50  0000 C CNN
F 3 "" H 11100 7950 50  0000 C CNN
	1    11100 7950
	1    0    0    -1  
$EndComp
$Comp
L GND #PWR05
U 1 1 57CF5CD8
P 9200 7750
F 0 "#PWR05" H 9200 7500 50  0001 C CNN
F 1 "GND" H 9200 7600 50  0000 C CNN
F 2 "" H 9200 7750 50  0000 C CNN
F 3 "" H 9200 7750 50  0000 C CNN
	1    9200 7750
	0    1    1    0   
$EndComp
$Comp
L mic5353_3v3 U3
U 1 1 57CF6518
P 10850 9250
F 0 "U3" H 10550 9500 50  0000 C CNN
F 1 "mic5353_3v3" H 10850 9450 50  0000 C CNN
F 2 "extra:MT1.6" H 10850 9350 50  0001 C CIN
F 3 "" H 10850 9250 50  0000 C CNN
	1    10850 9250
	1    0    0    -1  
$EndComp
$Comp
L C C3
U 1 1 57CF6545
P 9900 9050
F 0 "C3" H 9925 9150 50  0000 L CNN
F 1 "1uF" H 9925 8950 50  0000 L CNN
F 2 "Capacitors_SMD:C_0603" H 9938 8900 50  0001 C CNN
F 3 "" H 9900 9050 50  0000 C CNN
	1    9900 9050
	1    0    0    -1  
$EndComp
$Comp
L GND #PWR06
U 1 1 57CF663A
P 9900 8800
F 0 "#PWR06" H 9900 8550 50  0001 C CNN
F 1 "GND" H 9900 8650 50  0000 C CNN
F 2 "" H 9900 8800 50  0000 C CNN
F 3 "" H 9900 8800 50  0000 C CNN
	1    9900 8800
	-1   0    0    1   
$EndComp
$Comp
L R R2
U 1 1 57CF66F4
P 10150 9350
F 0 "R2" V 10230 9350 50  0000 C CNN
F 1 "100k" V 10150 9350 50  0000 C CNN
F 2 "Resistors_SMD:R_0603" V 10080 9350 50  0001 C CNN
F 3 "" H 10150 9350 50  0000 C CNN
	1    10150 9350
	0    1    1    0   
$EndComp
$Comp
L C C5
U 1 1 57CF69BE
P 11500 9350
F 0 "C5" H 11525 9450 50  0000 L CNN
F 1 "1uF" H 11525 9250 50  0000 L CNN
F 2 "Capacitors_SMD:C_0603" H 11538 9200 50  0001 C CNN
F 3 "" H 11500 9350 50  0000 C CNN
	1    11500 9350
	0    1    1    0   
$EndComp
$Comp
L GND #PWR07
U 1 1 57CF6A30
P 11650 9250
F 0 "#PWR07" H 11650 9000 50  0001 C CNN
F 1 "GND" H 11650 9100 50  0000 C CNN
F 2 "" H 11650 9250 50  0000 C CNN
F 3 "" H 11650 9250 50  0000 C CNN
	1    11650 9250
	-1   0    0    1   
$EndComp
Text GLabel 10350 9600 3    60   Input ~ 0
EN_LDO_lowOFF
$Comp
L C C4
U 1 1 57CF6C78
P 11250 8750
F 0 "C4" H 11275 8850 50  0000 L CNN
F 1 "1uF" H 11275 8650 50  0000 L CNN
F 2 "Capacitors_SMD:C_0603" H 11288 8600 50  0001 C CNN
F 3 "" H 11250 8750 50  0000 C CNN
	1    11250 8750
	0    1    1    0   
$EndComp
$Comp
L GND #PWR08
U 1 1 57CF6D06
P 11050 8750
F 0 "#PWR08" H 11050 8500 50  0001 C CNN
F 1 "GND" H 11050 8600 50  0000 C CNN
F 2 "" H 11050 8750 50  0000 C CNN
F 3 "" H 11050 8750 50  0000 C CNN
	1    11050 8750
	0    1    1    0   
$EndComp
Text GLabel 7200 6550 0    60   Input ~ 0
IO_4_touch0
Text GLabel 7800 6650 0    60   Input ~ 0
IO_16
Text GLabel 7250 6750 0    60   Input ~ 0
IO_17
Text GLabel 7250 6950 0    60   Input ~ 0
IO_18
Text GLabel 7800 7050 0    60   Input ~ 0
IO_19
Text GLabel 7800 7250 0    60   Input ~ 0
IO_21
Text GLabel 7800 7650 0    60   Input ~ 0
IO_22
Text GLabel 7800 7800 0    60   Input ~ 0
IO_23
Text GLabel 9800 5700 1    60   Input ~ 0
IO_15_touch3
Text GLabel 10500 5700 1    60   Input ~ 0
IO_13_touch4
Text GLabel 12200 6450 2    60   Input ~ 0
IO_12_touch5
Text GLabel 12900 6550 2    60   Input ~ 0
IO_14_touch6
Text GLabel 12200 6650 2    60   Input ~ 0
IO_27_touch7
Text GLabel 12900 6750 2    60   Input ~ 0
IO_26
Text GLabel 12200 6850 2    60   Input ~ 0
IO_25
Text GLabel 12900 6950 2    60   Input ~ 0
IO_33_touch8
Text GLabel 12200 7050 2    60   Input ~ 0
IO_32_touch9
Text GLabel 12900 7150 2    60   Input ~ 0
IO_35
Text GLabel 12200 7250 2    60   Input ~ 0
IO_34
$Comp
L R R3
U 1 1 57CF745C
P 11600 7650
F 0 "R3" V 11680 7650 50  0000 C CNN
F 1 "10k" V 11600 7650 50  0000 C CNN
F 2 "Resistors_SMD:R_0603" V 11530 7650 50  0001 C CNN
F 3 "" H 11600 7650 50  0000 C CNN
	1    11600 7650
	0    1    1    0   
$EndComp
Text GLabel 11350 7350 2    60   Input ~ 0
VN_LNA
Text GLabel 11750 7450 2    60   Input ~ 0
VP_LNA
$Comp
L USB_OTG P1
U 1 1 57CF7FDB
P 4050 8650
F 0 "P1" H 4375 8525 50  0000 C CNN
F 1 "USB_OTG" H 4050 8850 50  0000 C CNN
F 2 "Connect:USB_Micro-B" V 4000 8550 50  0001 C CNN
F 3 "" V 4000 8550 50  0000 C CNN
	1    4050 8650
	0    -1   -1   0   
$EndComp
$Comp
L CP2104 U1
U 1 1 57CF80AC
P 6050 8750
F 0 "U1" H 6050 8650 50  0000 C CNN
F 1 "CP2104" H 6050 8850 50  0000 C CNN
F 2 "extra:QFP_24" H 6050 8750 50  0001 C CNN
F 3 "DOCUMENTATION" H 6050 8750 50  0001 C CNN
	1    6050 8750
	1    0    0    -1  
$EndComp
$Comp
L GND #PWR09
U 1 1 57CF86F4
P 4450 8200
F 0 "#PWR09" H 4450 7950 50  0001 C CNN
F 1 "GND" H 4450 8050 50  0000 C CNN
F 2 "" H 4450 8200 50  0000 C CNN
F 3 "" H 4450 8200 50  0000 C CNN
	1    4450 8200
	-1   0    0    1   
$EndComp
$Comp
L GND #PWR010
U 1 1 57CF8720
P 4850 8200
F 0 "#PWR010" H 4850 7950 50  0001 C CNN
F 1 "GND" H 4850 8050 50  0000 C CNN
F 2 "" H 4850 8200 50  0000 C CNN
F 3 "" H 4850 8200 50  0000 C CNN
	1    4850 8200
	-1   0    0    1   
$EndComp
$Comp
L GND #PWR011
U 1 1 57CF874C
P 3950 8200
F 0 "#PWR011" H 3950 7950 50  0001 C CNN
F 1 "GND" H 3950 8050 50  0000 C CNN
F 2 "" H 3950 8200 50  0000 C CNN
F 3 "" H 3950 8200 50  0000 C CNN
	1    3950 8200
	-1   0    0    1   
$EndComp
$Comp
L +3.3V #PWR012
U 1 1 57CF8A13
P 11550 8750
F 0 "#PWR012" H 11550 8600 50  0001 C CNN
F 1 "+3.3V" H 11550 8890 50  0000 C CNN
F 2 "" H 11550 8750 50  0000 C CNN
F 3 "" H 11550 8750 50  0000 C CNN
	1    11550 8750
	0    1    1    0   
$EndComp
$Comp
L +3.3V #PWR013
U 1 1 57CF8AB4
P 4850 8900
F 0 "#PWR013" H 4850 8750 50  0001 C CNN
F 1 "+3.3V" H 4850 9040 50  0000 C CNN
F 2 "" H 4850 8900 50  0000 C CNN
F 3 "" H 4850 8900 50  0000 C CNN
	1    4850 8900
	0    -1   -1   0   
$EndComp
$Comp
L +5V #PWR014
U 1 1 57CF8ECA
P 9700 9200
F 0 "#PWR014" H 9700 9050 50  0001 C CNN
F 1 "+5V" H 9700 9340 50  0000 C CNN
F 2 "" H 9700 9200 50  0000 C CNN
F 3 "" H 9700 9200 50  0000 C CNN
	1    9700 9200
	0    -1   -1   0   
$EndComp
$Comp
L +5V #PWR015
U 1 1 57CF8F6D
P 5900 9800
F 0 "#PWR015" H 5900 9650 50  0001 C CNN
F 1 "+5V" H 5900 9940 50  0000 C CNN
F 2 "" H 5900 9800 50  0000 C CNN
F 3 "" H 5900 9800 50  0000 C CNN
	1    5900 9800
	-1   0    0    1   
$EndComp
$Comp
L C C2
U 1 1 57CF909B
P 5300 9950
F 0 "C2" H 5325 10050 50  0000 L CNN
F 1 "1uF" H 5325 9850 50  0000 L CNN
F 2 "Capacitors_SMD:C_0603" H 5338 9800 50  0001 C CNN
F 3 "" H 5300 9950 50  0000 C CNN
	1    5300 9950
	1    0    0    -1  
$EndComp
$Comp
L C C1
U 1 1 57CF9121
P 5000 9950
F 0 "C1" H 5025 10050 50  0000 L CNN
F 1 "0.1uF" H 5025 9850 50  0000 L CNN
F 2 "Capacitors_SMD:C_0603" H 5038 9800 50  0001 C CNN
F 3 "" H 5000 9950 50  0000 C CNN
	1    5000 9950
	1    0    0    -1  
$EndComp
$Comp
L GND #PWR016
U 1 1 57CF9248
P 5000 10200
F 0 "#PWR016" H 5000 9950 50  0001 C CNN
F 1 "GND" H 5000 10050 50  0000 C CNN
F 2 "" H 5000 10200 50  0000 C CNN
F 3 "" H 5000 10200 50  0000 C CNN
	1    5000 10200
	1    0    0    -1  
$EndComp
$Comp
L GND #PWR017
U 1 1 57CF9281
P 5300 10200
F 0 "#PWR017" H 5300 9950 50  0001 C CNN
F 1 "GND" H 5300 10050 50  0000 C CNN
F 2 "" H 5300 10200 50  0000 C CNN
F 3 "" H 5300 10200 50  0000 C CNN
	1    5300 10200
	1    0    0    -1  
$EndComp
$Comp
L CONN_01X03 P3
U 1 1 57CF94B3
P 5600 6450
F 0 "P3" H 5600 6650 50  0000 C CNN
F 1 "prog_jump" H 5500 6250 50  0000 C CNN
F 2 "Pin_Headers:Pin_Header_Straight_1x03" H 5600 6450 50  0001 C CNN
F 3 "" H 5600 6450 50  0000 C CNN
	1    5600 6450
	0    -1   -1   0   
$EndComp
$Comp
L CONN_01X01 P2
U 1 1 57CF95F0
P 5600 6300
F 0 "P2" H 5600 6400 50  0000 C CNN
F 1 "prg_LOW" H 5500 6200 50  0000 C CNN
F 2 "Pin_Headers:Pin_Header_Straight_1x01" H 5600 6300 50  0001 C CNN
F 3 "" H 5600 6300 50  0000 C CNN
	1    5600 6300
	0    1    1    0   
$EndComp
$Comp
L CONN_01X03 P6
U 1 1 57CF9DB1
P 17500 10650
F 0 "P6" H 17500 10850 50  0000 C CNN
F 1 "V_all_2" V 17600 10650 50  0000 C CNN
F 2 "Pin_Headers:Pin_Header_Straight_1x03" H 17500 10650 50  0001 C CNN
F 3 "" H 17500 10650 50  0000 C CNN
	1    17500 10650
	0    1    1    0   
$EndComp
$Comp
L GND #PWR018
U 1 1 57CF9F08
P 17500 10350
F 0 "#PWR018" H 17500 10100 50  0001 C CNN
F 1 "GND" H 17500 10200 50  0000 C CNN
F 2 "" H 17500 10350 50  0000 C CNN
F 3 "" H 17500 10350 50  0000 C CNN
	1    17500 10350
	-1   0    0    1   
$EndComp
$Comp
L +3.3V #PWR019
U 1 1 57CF9F43
P 17400 10100
F 0 "#PWR019" H 17400 9950 50  0001 C CNN
F 1 "+3.3V" H 17400 10240 50  0000 C CNN
F 2 "" H 17400 10100 50  0000 C CNN
F 3 "" H 17400 10100 50  0000 C CNN
	1    17400 10100
	1    0    0    -1  
$EndComp
$Comp
L +5V #PWR020
U 1 1 57CF9FC4
P 17600 10100
F 0 "#PWR020" H 17600 9950 50  0001 C CNN
F 1 "+5V" H 17600 10240 50  0000 C CNN
F 2 "" H 17600 10100 50  0000 C CNN
F 3 "" H 17600 10100 50  0000 C CNN
	1    17600 10100
	1    0    0    -1  
$EndComp
$Comp
L CONN_01X03 P5
U 1 1 57CFA33B
P 16800 10650
F 0 "P5" H 16800 10850 50  0000 C CNN
F 1 "V_all_1" V 16900 10650 50  0000 C CNN
F 2 "Pin_Headers:Pin_Header_Straight_1x03" H 16800 10650 50  0001 C CNN
F 3 "" H 16800 10650 50  0000 C CNN
	1    16800 10650
	0    1    1    0   
$EndComp
$Comp
L GND #PWR021
U 1 1 57CFA341
P 16800 10350
F 0 "#PWR021" H 16800 10100 50  0001 C CNN
F 1 "GND" H 16800 10200 50  0000 C CNN
F 2 "" H 16800 10350 50  0000 C CNN
F 3 "" H 16800 10350 50  0000 C CNN
	1    16800 10350
	-1   0    0    1   
$EndComp
$Comp
L +3.3V #PWR022
U 1 1 57CFA347
P 16700 10100
F 0 "#PWR022" H 16700 9950 50  0001 C CNN
F 1 "+3.3V" H 16700 10240 50  0000 C CNN
F 2 "" H 16700 10100 50  0000 C CNN
F 3 "" H 16700 10100 50  0000 C CNN
	1    16700 10100
	1    0    0    -1  
$EndComp
$Comp
L +5V #PWR023
U 1 1 57CFA34D
P 16900 10100
F 0 "#PWR023" H 16900 9950 50  0001 C CNN
F 1 "+5V" H 16900 10240 50  0000 C CNN
F 2 "" H 16900 10100 50  0000 C CNN
F 3 "" H 16900 10100 50  0000 C CNN
	1    16900 10100
	1    0    0    -1  
$EndComp
$Comp
L CONN_01X02 P4
U 1 1 57CFA4FD
P 16750 11600
F 0 "P4" H 16750 11750 50  0000 C CNN
F 1 "V_3v3" V 16850 11600 50  0000 C CNN
F 2 "Pin_Headers:Pin_Header_Straight_1x02" H 16750 11600 50  0001 C CNN
F 3 "" H 16750 11600 50  0000 C CNN
	1    16750 11600
	0    1    1    0   
$EndComp
$Comp
L +3.3V #PWR024
U 1 1 57CFA624
P 16700 11150
F 0 "#PWR024" H 16700 11000 50  0001 C CNN
F 1 "+3.3V" H 16700 11290 50  0000 C CNN
F 2 "" H 16700 11150 50  0000 C CNN
F 3 "" H 16700 11150 50  0000 C CNN
	1    16700 11150
	1    0    0    -1  
$EndComp
$Comp
L GND #PWR025
U 1 1 57CFA665
P 16800 11300
F 0 "#PWR025" H 16800 11050 50  0001 C CNN
F 1 "GND" H 16800 11150 50  0000 C CNN
F 2 "" H 16800 11300 50  0000 C CNN
F 3 "" H 16800 11300 50  0000 C CNN
	1    16800 11300
	-1   0    0    1   
$EndComp
$Comp
L CONN_01X02 P7
U 1 1 57CFA80B
P 17500 11600
F 0 "P7" H 17500 11750 50  0000 C CNN
F 1 "V_3v3" V 17600 11600 50  0000 C CNN
F 2 "Pin_Headers:Pin_Header_Straight_1x02" H 17500 11600 50  0001 C CNN
F 3 "" H 17500 11600 50  0000 C CNN
	1    17500 11600
	0    1    1    0   
$EndComp
$Comp
L +3.3V #PWR026
U 1 1 57CFA811
P 17450 11150
F 0 "#PWR026" H 17450 11000 50  0001 C CNN
F 1 "+3.3V" H 17450 11290 50  0000 C CNN
F 2 "" H 17450 11150 50  0000 C CNN
F 3 "" H 17450 11150 50  0000 C CNN
	1    17450 11150
	1    0    0    -1  
$EndComp
$Comp
L GND #PWR027
U 1 1 57CFA817
P 17550 11300
F 0 "#PWR027" H 17550 11050 50  0001 C CNN
F 1 "GND" H 17550 11150 50  0000 C CNN
F 2 "" H 17550 11300 50  0000 C CNN
F 3 "" H 17550 11300 50  0000 C CNN
	1    17550 11300
	-1   0    0    1   
$EndComp
Text GLabel 10000 5700 1    60   Input ~ 0
IO_7
Text GLabel 10100 5000 1    60   Input ~ 0
IO_6
Text GLabel 10200 5700 1    60   Input ~ 0
IO_11
Text GLabel 9900 5000 1    60   Input ~ 0
IO_8
Text GLabel 10400 5000 1    60   Input ~ 0
IO_9
Text GLabel 10300 5350 1    60   Input ~ 0
IO_10
Wire Wire Line
	6200 7350 9250 7350
Wire Wire Line
	6300 7450 9250 7450
Wire Wire Line
	8900 6450 9250 6450
Connection ~ 9150 6450
Wire Wire Line
	9150 6150 9150 6050
Wire Wire Line
	8900 6150 8800 6150
Wire Wire Line
	8200 6150 8100 6150
Wire Wire Line
	8900 5750 8900 6450
Wire Wire Line
	10600 6050 10600 6000
Wire Wire Line
	9250 7750 9200 7750
Wire Wire Line
	11100 7650 11450 7650
Wire Wire Line
	11100 7950 11100 7750
Wire Wire Line
	9700 9200 10400 9200
Wire Wire Line
	11450 7650 11450 9200
Wire Wire Line
	11450 9200 11300 9200
Wire Wire Line
	9900 8800 9900 8900
Wire Wire Line
	10000 9350 10000 9200
Connection ~ 10000 9200
Wire Wire Line
	10300 9350 10400 9350
Wire Wire Line
	11300 9350 11350 9350
Wire Wire Line
	11650 9350 11650 9250
Wire Wire Line
	10350 9350 10350 9600
Connection ~ 10350 9350
Wire Wire Line
	11100 8750 11050 8750
Wire Wire Line
	11400 8750 11550 8750
Connection ~ 11450 8750
Wire Wire Line
	11100 7550 11800 7550
Wire Wire Line
	11800 7550 11800 7650
Wire Wire Line
	11800 7650 11750 7650
Wire Wire Line
	11100 7350 11350 7350
Wire Wire Line
	11750 7450 11100 7450
Wire Wire Line
	12200 7250 11100 7250
Wire Wire Line
	11100 7150 12900 7150
Wire Wire Line
	12200 7050 11100 7050
Wire Wire Line
	11100 6950 12900 6950
Wire Wire Line
	12200 6850 11100 6850
Wire Wire Line
	11100 6450 12200 6450
Wire Wire Line
	12900 6550 11100 6550
Wire Wire Line
	11100 6650 12200 6650
Wire Wire Line
	11100 6750 12900 6750
Wire Wire Line
	10500 6050 10500 5700
Wire Wire Line
	9800 5700 9800 6050
Wire Wire Line
	9250 7550 8450 7550
Wire Wire Line
	8450 7550 8450 7650
Wire Wire Line
	8450 7650 7800 7650
Wire Wire Line
	7800 7800 8650 7800
Wire Wire Line
	8650 7800 8650 7650
Wire Wire Line
	8650 7650 9250 7650
Wire Wire Line
	7800 7250 9250 7250
Wire Wire Line
	7800 7050 9250 7050
Wire Wire Line
	7250 6950 9250 6950
Wire Wire Line
	7250 6750 9250 6750
Wire Wire Line
	7800 6650 9250 6650
Wire Wire Line
	7200 6550 9250 6550
Wire Wire Line
	4350 8750 5000 8750
Wire Wire Line
	4350 8650 5000 8650
Wire Wire Line
	5900 9550 5900 9800
Wire Wire Line
	4350 9750 5900 9750
Wire Wire Line
	4350 9750 4350 8850
Wire Wire Line
	6200 7350 6200 7950
Wire Wire Line
	6300 7450 6300 7950
Wire Wire Line
	4850 8550 5000 8550
Wire Wire Line
	4850 8550 4850 8200
Wire Wire Line
	4350 8450 4450 8450
Wire Wire Line
	4450 8450 4450 8200
Wire Wire Line
	3950 8200 3950 8250
Wire Wire Line
	5000 8850 4950 8850
Wire Wire Line
	4950 8850 4950 8950
Wire Wire Line
	4950 8950 5000 8950
Wire Wire Line
	4850 8900 4950 8900
Connection ~ 4950 8900
Wire Wire Line
	5600 5750 8900 5750
Connection ~ 8900 6150
Wire Wire Line
	5800 9550 5800 9750
Connection ~ 5800 9750
Connection ~ 9900 9200
Connection ~ 5900 9750
Wire Wire Line
	5300 9800 5300 9750
Connection ~ 5300 9750
Wire Wire Line
	5000 9800 5000 9750
Connection ~ 5000 9750
Wire Wire Line
	5300 10100 5300 10200
Wire Wire Line
	5000 10100 5000 10200
Wire Wire Line
	5600 6100 5600 5750
Wire Wire Line
	6000 7950 6000 7100
Wire Wire Line
	6000 7100 5700 7100
Wire Wire Line
	5700 7100 5700 6650
Wire Wire Line
	5000 9050 4600 9050
Wire Wire Line
	4600 9050 4600 7100
Wire Wire Line
	4600 7100 5600 7100
Wire Wire Line
	5600 7100 5600 6650
Wire Wire Line
	7100 8550 7100 7650
Wire Wire Line
	7100 7650 5500 7650
Wire Wire Line
	5500 7650 5500 6650
Wire Wire Line
	17400 10450 17400 10100
Wire Wire Line
	17500 10350 17500 10450
Wire Wire Line
	17600 10100 17600 10450
Wire Wire Line
	16700 10450 16700 10100
Wire Wire Line
	16800 10350 16800 10450
Wire Wire Line
	16900 10100 16900 10450
Wire Wire Line
	16700 11400 16700 11150
Wire Wire Line
	16800 11400 16800 11300
Wire Wire Line
	17450 11400 17450 11150
Wire Wire Line
	17550 11400 17550 11300
Wire Wire Line
	10000 6050 10000 5700
Wire Wire Line
	10100 5000 10100 6050
Wire Wire Line
	10200 6050 10200 5700
Wire Wire Line
	9900 6050 9900 5000
Wire Wire Line
	10400 6050 10400 5000
Wire Wire Line
	10300 5350 10300 6050
$Comp
L CONN_01X08 P9
U 1 1 57CFC02E
P 17600 6050
F 0 "P9" H 17600 6500 50  0000 C CNN
F 1 "CONN_IO_B" V 17700 6050 50  0000 C CNN
F 2 "Pin_Headers:Pin_Header_Straight_1x08" H 17600 6050 50  0001 C CNN
F 3 "" H 17600 6050 50  0000 C CNN
	1    17600 6050
	1    0    0    -1  
$EndComp
$Comp
L CONN_01X08 P10
U 1 1 57CFC115
P 17600 7000
F 0 "P10" H 17600 7450 50  0000 C CNN
F 1 "CONN_IO_C" V 17700 7000 50  0000 C CNN
F 2 "Pin_Headers:Pin_Header_Straight_1x08" H 17600 7000 50  0001 C CNN
F 3 "" H 17600 7000 50  0000 C CNN
	1    17600 7000
	1    0    0    -1  
$EndComp
$Comp
L CONN_01X08 P11
U 1 1 57CFC182
P 17600 7950
F 0 "P11" H 17600 8400 50  0000 C CNN
F 1 "CONN_IO_D" V 17700 7950 50  0000 C CNN
F 2 "Pin_Headers:Pin_Header_Straight_1x08" H 17600 7950 50  0001 C CNN
F 3 "" H 17600 7950 50  0000 C CNN
	1    17600 7950
	1    0    0    -1  
$EndComp
$Comp
L CONN_01X08 P8
U 1 1 57CFC1FA
P 17600 5050
F 0 "P8" H 17600 5500 50  0000 C CNN
F 1 "CONN_IO_A" V 17700 5050 50  0000 C CNN
F 2 "Pin_Headers:Pin_Header_Straight_1x08" H 17600 5050 50  0001 C CNN
F 3 "" H 17600 5050 50  0000 C CNN
	1    17600 5050
	1    0    0    -1  
$EndComp
$Comp
L GND #PWR028
U 1 1 57CFCE22
P 17300 4700
F 0 "#PWR028" H 17300 4450 50  0001 C CNN
F 1 "GND" H 17300 4550 50  0000 C CNN
F 2 "" H 17300 4700 50  0000 C CNN
F 3 "" H 17300 4700 50  0000 C CNN
	1    17300 4700
	0    1    1    0   
$EndComp
$Comp
L GND #PWR029
U 1 1 57CFCE89
P 17300 5700
F 0 "#PWR029" H 17300 5450 50  0001 C CNN
F 1 "GND" H 17300 5550 50  0000 C CNN
F 2 "" H 17300 5700 50  0000 C CNN
F 3 "" H 17300 5700 50  0000 C CNN
	1    17300 5700
	0    1    1    0   
$EndComp
$Comp
L GND #PWR030
U 1 1 57CFCED9
P 17300 6650
F 0 "#PWR030" H 17300 6400 50  0001 C CNN
F 1 "GND" H 17300 6500 50  0000 C CNN
F 2 "" H 17300 6650 50  0000 C CNN
F 3 "" H 17300 6650 50  0000 C CNN
	1    17300 6650
	0    1    1    0   
$EndComp
$Comp
L GND #PWR031
U 1 1 57CFCF29
P 17300 7600
F 0 "#PWR031" H 17300 7350 50  0001 C CNN
F 1 "GND" H 17300 7450 50  0000 C CNN
F 2 "" H 17300 7600 50  0000 C CNN
F 3 "" H 17300 7600 50  0000 C CNN
	1    17300 7600
	0    1    1    0   
$EndComp
Wire Wire Line
	17300 7600 17400 7600
Wire Wire Line
	17400 6650 17300 6650
Wire Wire Line
	17300 5700 17400 5700
Wire Wire Line
	17300 4700 17400 4700
Text GLabel 17050 4800 0    60   Input ~ 0
IO_4_touch0
Text GLabel 16350 4900 0    60   Input ~ 0
IO_6
Text GLabel 17050 5000 0    60   Input ~ 0
IO_7
Text GLabel 16350 5100 0    60   Input ~ 0
IO_8
Text GLabel 17050 5200 0    60   Input ~ 0
IO_9
Text GLabel 16350 5300 0    60   Input ~ 0
IO_10
Text GLabel 17050 5400 0    60   Input ~ 0
IO_11
Wire Wire Line
	17050 4800 17400 4800
Wire Wire Line
	17400 4900 16350 4900
Wire Wire Line
	17050 5000 17400 5000
Wire Wire Line
	17400 5100 16350 5100
Wire Wire Line
	17050 5200 17400 5200
Wire Wire Line
	17400 5300 16350 5300
Wire Wire Line
	17050 5400 17400 5400
Text GLabel 17100 5800 0    60   Input ~ 0
IO_12_touch5
Text GLabel 16350 5900 0    60   Input ~ 0
IO_13_touch4
Text GLabel 17100 6000 0    60   Input ~ 0
IO_14_touch6
Text GLabel 16350 6100 0    60   Input ~ 0
IO_15_touch3
Text GLabel 17100 6200 0    60   Input ~ 0
IO_16
Text GLabel 16350 6300 0    60   Input ~ 0
IO_17
Text GLabel 17100 6400 0    60   Input ~ 0
IO_18
Wire Wire Line
	17100 5800 17400 5800
Wire Wire Line
	17400 5900 16350 5900
Wire Wire Line
	17100 6000 17400 6000
Wire Wire Line
	17400 6100 16350 6100
Wire Wire Line
	17100 6200 17400 6200
Wire Wire Line
	17400 6300 16350 6300
Wire Wire Line
	17100 6400 17400 6400
Text GLabel 17100 6750 0    60   Input ~ 0
IO_19
Text GLabel 16350 6850 0    60   Input ~ 0
IO_21
Text GLabel 17100 6950 0    60   Input ~ 0
IO_22
Text GLabel 16350 7050 0    60   Input ~ 0
IO_23
Text GLabel 17100 7150 0    60   Input ~ 0
IO_25
Text GLabel 16350 7250 0    60   Input ~ 0
IO_26
Text GLabel 17150 7350 0    60   Input ~ 0
IO_27_touch7
Wire Wire Line
	17400 7350 17150 7350
Wire Wire Line
	16350 7250 17400 7250
Wire Wire Line
	17400 7150 17100 7150
Wire Wire Line
	16350 7050 17400 7050
Wire Wire Line
	17400 6950 17100 6950
Wire Wire Line
	16350 6850 17400 6850
Wire Wire Line
	17400 6750 17100 6750
Text GLabel 17050 7700 0    60   Input ~ 0
IO_32_touch9
Text GLabel 16300 7800 0    60   Input ~ 0
IO_33_touch8
Text GLabel 17050 7900 0    60   Input ~ 0
IO_34
Text GLabel 16300 8000 0    60   Input ~ 0
IO_35
Wire Wire Line
	17050 7700 17400 7700
Wire Wire Line
	16300 7800 17400 7800
Wire Wire Line
	17050 7900 17400 7900
Wire Wire Line
	16300 8000 17400 8000
Text GLabel 17050 8100 0    60   Input ~ 0
VN_LNA
Text GLabel 16300 8200 0    60   Input ~ 0
VP_LNA
Wire Wire Line
	17050 8100 17400 8100
Wire Wire Line
	17400 8200 16300 8200
$Comp
L ESP3212-oldschool U2
U 1 1 57D42D6C
P 10150 7100
F 0 "U2" H 9450 8350 60  0000 C CNN
F 1 "ESP3212-oldschool" H 10650 8350 60  0000 C CNN
F 2 "ESP32-footprints-Lib:ESP3212" H 10500 8450 60  0001 C CNN
F 3 "" H 9700 7500 60  0001 C CNN
	1    10150 7100
	-1   0    0    1   
$EndComp
$EndSCHEMATC
