EESchema Schematic File Version 2
LIBS:power
LIBS:device
LIBS:transistors
LIBS:conn
LIBS:linear
LIBS:regul
LIBS:74xx
LIBS:cmos4000
LIBS:adc-dac
LIBS:memory
LIBS:xilinx
LIBS:microcontrollers
LIBS:dsp
LIBS:microchip
LIBS:analog_switches
LIBS:motorola
LIBS:texas
LIBS:intel
LIBS:audio
LIBS:interface
LIBS:digital-audio
LIBS:philips
LIBS:display
LIBS:cypress
LIBS:siliconi
LIBS:opto
LIBS:atmel
LIBS:contrib
LIBS:valves
LIBS:esp3212-module-board-cache
EELAYER 25 0
EELAYER END
$Descr A2 23386 16535
encoding utf-8
Sheet 1 1
Title ""
Date ""
Rev ""
Comp ""
Comment1 ""
Comment2 ""
Comment3 ""
Comment4 ""
$EndDescr
$Comp
L GND #PWR01
U 1 1 57CF58B1
P 6100 6100
F 0 "#PWR01" H 6100 5850 50  0001 C CNN
F 1 "GND" H 6100 5950 50  0000 C CNN
F 2 "" H 6100 6100 50  0000 C CNN
F 3 "" H 6100 6100 50  0000 C CNN
	1    6100 6100
	0    1    1    0   
$EndComp
$Comp
L R R1
U 1 1 57CF58C9
P 7150 6250
F 0 "R1" V 7230 6250 50  0000 C CNN
F 1 "10k" V 7150 6250 50  0000 C CNN
F 2 "Resistors_SMD:R_0603" V 7080 6250 50  0001 C CNN
F 3 "" H 7150 6250 50  0000 C CNN
	1    7150 6250
	1    0    0    -1  
$EndComp
$Comp
L +3.3V #PWR02
U 1 1 57CF591A
P 7150 6000
F 0 "#PWR02" H 7150 5850 50  0001 C CNN
F 1 "+3.3V" H 7150 6140 50  0000 C CNN
F 2 "" H 7150 6000 50  0000 C CNN
F 3 "" H 7150 6000 50  0000 C CNN
	1    7150 6000
	1    0    0    -1  
$EndComp
$Comp
L SW_PUSH SW1
U 1 1 57CF593F
P 6500 6100
F 0 "SW1" H 6650 6210 50  0000 C CNN
F 1 "program" H 6500 6020 50  0000 C CNN
F 2 "Buttons_Switches_SMD:SW_SPST_B3S-1000" H 6500 6100 50  0001 C CNN
F 3 "" H 6500 6100 50  0000 C CNN
	1    6500 6100
	1    0    0    -1  
$EndComp
$Comp
L C C3
U 1 1 57CF6545
P 9900 9050
F 0 "C3" H 9925 9150 50  0000 L CNN
F 1 "1uF" H 9925 8950 50  0000 L CNN
F 2 "Capacitors_SMD:C_0603" H 9938 8900 50  0001 C CNN
F 3 "" H 9900 9050 50  0000 C CNN
	1    9900 9050
	1    0    0    -1  
$EndComp
$Comp
L GND #PWR03
U 1 1 57CF663A
P 9900 8800
F 0 "#PWR03" H 9900 8550 50  0001 C CNN
F 1 "GND" H 9900 8650 50  0000 C CNN
F 2 "" H 9900 8800 50  0000 C CNN
F 3 "" H 9900 8800 50  0000 C CNN
	1    9900 8800
	-1   0    0    1   
$EndComp
$Comp
L R R2
U 1 1 57CF66F4
P 10150 9350
F 0 "R2" V 10230 9350 50  0000 C CNN
F 1 "100k" V 10150 9350 50  0000 C CNN
F 2 "Resistors_SMD:R_0603" V 10080 9350 50  0001 C CNN
F 3 "" H 10150 9350 50  0000 C CNN
	1    10150 9350
	0    1    1    0   
$EndComp
$Comp
L C C5
U 1 1 57CF69BE
P 11500 9350
F 0 "C5" H 11525 9450 50  0000 L CNN
F 1 "1uF" H 11525 9250 50  0000 L CNN
F 2 "Capacitors_SMD:C_0603" H 11538 9200 50  0001 C CNN
F 3 "" H 11500 9350 50  0000 C CNN
	1    11500 9350
	0    1    1    0   
$EndComp
$Comp
L GND #PWR04
U 1 1 57CF6A30
P 11650 9250
F 0 "#PWR04" H 11650 9000 50  0001 C CNN
F 1 "GND" H 11650 9100 50  0000 C CNN
F 2 "" H 11650 9250 50  0000 C CNN
F 3 "" H 11650 9250 50  0000 C CNN
	1    11650 9250
	-1   0    0    1   
$EndComp
Text GLabel 10350 9600 3    60   Input ~ 0
EN_LDO_lowOFF
$Comp
L C C4
U 1 1 57CF6C78
P 11250 8750
F 0 "C4" H 11275 8850 50  0000 L CNN
F 1 "1uF" H 11275 8650 50  0000 L CNN
F 2 "Capacitors_SMD:C_0603" H 11288 8600 50  0001 C CNN
F 3 "" H 11250 8750 50  0000 C CNN
	1    11250 8750
	0    1    1    0   
$EndComp
$Comp
L GND #PWR05
U 1 1 57CF6D06
P 11050 8750
F 0 "#PWR05" H 11050 8500 50  0001 C CNN
F 1 "GND" H 11050 8600 50  0000 C CNN
F 2 "" H 11050 8750 50  0000 C CNN
F 3 "" H 11050 8750 50  0000 C CNN
	1    11050 8750
	0    1    1    0   
$EndComp
Text GLabel 9300 5900 1    60   Input ~ 0
IO_16
Text GLabel 8200 7200 0    60   Input ~ 0
IO_17
Text GLabel 8200 7400 0    60   Input ~ 0
IO_18
Text GLabel 8200 7600 0    60   Input ~ 0
IO_19
Text GLabel 8200 7800 0    60   Input ~ 0
IO_21
Text GLabel 8600 7700 0    60   Input ~ 0
IO_22
Text GLabel 8600 7500 0    60   Input ~ 0
IO_23
Text GLabel 9700 5900 1    60   Input ~ 0
IO_15_touch3
Text GLabel 9800 5200 1    60   Input ~ 0
IO_13_touch4
Text GLabel 9900 5900 1    60   Input ~ 0
IO_12_touch5
Text GLabel 10000 5200 1    60   Input ~ 0
IO_14_touch6
Text GLabel 7850 7100 0    60   Input ~ 0
IO_27_touch7
Text GLabel 8600 7000 0    60   Input ~ 0
IO_26
Text GLabel 7850 6900 0    60   Input ~ 0
IO_25
Text GLabel 7850 6700 0    60   Input ~ 0
IO_32_touch9
Text GLabel 8600 6600 0    60   Input ~ 0
IO_35
$Comp
L R R3
U 1 1 57CF745C
P 11600 7650
F 0 "R3" V 11680 7650 50  0000 C CNN
F 1 "10k" V 11600 7650 50  0000 C CNN
F 2 "Resistors_SMD:R_0603" V 11530 7650 50  0001 C CNN
F 3 "" H 11600 7650 50  0000 C CNN
	1    11600 7650
	0    1    1    0   
$EndComp
Text GLabel 11350 7350 2    60   Input ~ 0
VN_LNA
Text GLabel 11750 7450 2    60   Input ~ 0
VP_LNA
$Comp
L USB_OTG P1
U 1 1 57CF7FDB
P 2050 8600
F 0 "P1" H 2375 8475 50  0000 C CNN
F 1 "USB_OTG" H 2050 8800 50  0000 C CNN
F 2 "Connect:USB_Micro-B" V 2000 8500 50  0001 C CNN
F 3 "" V 2000 8500 50  0000 C CNN
	1    2050 8600
	0    -1   -1   0   
$EndComp
$Comp
L GND #PWR06
U 1 1 57CF86F4
P 2450 8150
F 0 "#PWR06" H 2450 7900 50  0001 C CNN
F 1 "GND" H 2450 8000 50  0000 C CNN
F 2 "" H 2450 8150 50  0000 C CNN
F 3 "" H 2450 8150 50  0000 C CNN
	1    2450 8150
	-1   0    0    1   
$EndComp
$Comp
L GND #PWR07
U 1 1 57CF8720
P 2850 8150
F 0 "#PWR07" H 2850 7900 50  0001 C CNN
F 1 "GND" H 2850 8000 50  0000 C CNN
F 2 "" H 2850 8150 50  0000 C CNN
F 3 "" H 2850 8150 50  0000 C CNN
	1    2850 8150
	-1   0    0    1   
$EndComp
$Comp
L GND #PWR08
U 1 1 57CF874C
P 1950 8150
F 0 "#PWR08" H 1950 7900 50  0001 C CNN
F 1 "GND" H 1950 8000 50  0000 C CNN
F 2 "" H 1950 8150 50  0000 C CNN
F 3 "" H 1950 8150 50  0000 C CNN
	1    1950 8150
	-1   0    0    1   
$EndComp
$Comp
L +3.3V #PWR09
U 1 1 57CF8A13
P 11550 8750
F 0 "#PWR09" H 11550 8600 50  0001 C CNN
F 1 "+3.3V" H 11550 8890 50  0000 C CNN
F 2 "" H 11550 8750 50  0000 C CNN
F 3 "" H 11550 8750 50  0000 C CNN
	1    11550 8750
	0    1    1    0   
$EndComp
$Comp
L +3.3V #PWR010
U 1 1 57CF8AB4
P 2850 8850
F 0 "#PWR010" H 2850 8700 50  0001 C CNN
F 1 "+3.3V" H 2850 8990 50  0000 C CNN
F 2 "" H 2850 8850 50  0000 C CNN
F 3 "" H 2850 8850 50  0000 C CNN
	1    2850 8850
	0    -1   -1   0   
$EndComp
$Comp
L +5V #PWR011
U 1 1 57CF8ECA
P 9700 9200
F 0 "#PWR011" H 9700 9050 50  0001 C CNN
F 1 "+5V" H 9700 9340 50  0000 C CNN
F 2 "" H 9700 9200 50  0000 C CNN
F 3 "" H 9700 9200 50  0000 C CNN
	1    9700 9200
	0    -1   -1   0   
$EndComp
$Comp
L +5V #PWR012
U 1 1 57CF8F6D
P 3900 9750
F 0 "#PWR012" H 3900 9600 50  0001 C CNN
F 1 "+5V" H 3900 9890 50  0000 C CNN
F 2 "" H 3900 9750 50  0000 C CNN
F 3 "" H 3900 9750 50  0000 C CNN
	1    3900 9750
	-1   0    0    1   
$EndComp
$Comp
L C C2
U 1 1 57CF909B
P 3300 9900
F 0 "C2" H 3325 10000 50  0000 L CNN
F 1 "1uF" H 3325 9800 50  0000 L CNN
F 2 "Capacitors_SMD:C_0603" H 3338 9750 50  0001 C CNN
F 3 "" H 3300 9900 50  0000 C CNN
	1    3300 9900
	1    0    0    -1  
$EndComp
$Comp
L C C1
U 1 1 57CF9121
P 3000 9900
F 0 "C1" H 3025 10000 50  0000 L CNN
F 1 "0.1uF" H 3025 9800 50  0000 L CNN
F 2 "Capacitors_SMD:C_0603" H 3038 9750 50  0001 C CNN
F 3 "" H 3000 9900 50  0000 C CNN
	1    3000 9900
	1    0    0    -1  
$EndComp
$Comp
L GND #PWR013
U 1 1 57CF9248
P 3000 10150
F 0 "#PWR013" H 3000 9900 50  0001 C CNN
F 1 "GND" H 3000 10000 50  0000 C CNN
F 2 "" H 3000 10150 50  0000 C CNN
F 3 "" H 3000 10150 50  0000 C CNN
	1    3000 10150
	1    0    0    -1  
$EndComp
$Comp
L GND #PWR014
U 1 1 57CF9281
P 3300 10150
F 0 "#PWR014" H 3300 9900 50  0001 C CNN
F 1 "GND" H 3300 10000 50  0000 C CNN
F 2 "" H 3300 10150 50  0000 C CNN
F 3 "" H 3300 10150 50  0000 C CNN
	1    3300 10150
	1    0    0    -1  
$EndComp
$Comp
L CONN_01X03 P3
U 1 1 57CF94B3
P 3600 6400
F 0 "P3" H 3600 6600 50  0000 C CNN
F 1 "prog_jump" H 3500 6200 50  0000 C CNN
F 2 "Pin_Headers:Pin_Header_Straight_1x03" H 3600 6400 50  0001 C CNN
F 3 "" H 3600 6400 50  0000 C CNN
	1    3600 6400
	0    -1   -1   0   
$EndComp
$Comp
L CONN_01X01 P2
U 1 1 57CF95F0
P 3600 6250
F 0 "P2" H 3600 6350 50  0000 C CNN
F 1 "prg_LOW" H 3500 6150 50  0000 C CNN
F 2 "Pin_Headers:Pin_Header_Straight_1x01" H 3600 6250 50  0001 C CNN
F 3 "" H 3600 6250 50  0000 C CNN
	1    3600 6250
	0    1    1    0   
$EndComp
$Comp
L CONN_01X03 P6
U 1 1 57CF9DB1
P 17500 10650
F 0 "P6" H 17500 10850 50  0000 C CNN
F 1 "V_all_2" V 17600 10650 50  0000 C CNN
F 2 "Pin_Headers:Pin_Header_Straight_1x03" H 17500 10650 50  0001 C CNN
F 3 "" H 17500 10650 50  0000 C CNN
	1    17500 10650
	0    1    1    0   
$EndComp
$Comp
L GND #PWR015
U 1 1 57CF9F08
P 17500 10350
F 0 "#PWR015" H 17500 10100 50  0001 C CNN
F 1 "GND" H 17500 10200 50  0000 C CNN
F 2 "" H 17500 10350 50  0000 C CNN
F 3 "" H 17500 10350 50  0000 C CNN
	1    17500 10350
	-1   0    0    1   
$EndComp
$Comp
L +3.3V #PWR016
U 1 1 57CF9F43
P 17400 10100
F 0 "#PWR016" H 17400 9950 50  0001 C CNN
F 1 "+3.3V" H 17400 10240 50  0000 C CNN
F 2 "" H 17400 10100 50  0000 C CNN
F 3 "" H 17400 10100 50  0000 C CNN
	1    17400 10100
	1    0    0    -1  
$EndComp
$Comp
L +5V #PWR017
U 1 1 57CF9FC4
P 17600 10100
F 0 "#PWR017" H 17600 9950 50  0001 C CNN
F 1 "+5V" H 17600 10240 50  0000 C CNN
F 2 "" H 17600 10100 50  0000 C CNN
F 3 "" H 17600 10100 50  0000 C CNN
	1    17600 10100
	1    0    0    -1  
$EndComp
$Comp
L CONN_01X03 P5
U 1 1 57CFA33B
P 16800 10650
F 0 "P5" H 16800 10850 50  0000 C CNN
F 1 "V_all_1" V 16900 10650 50  0000 C CNN
F 2 "Pin_Headers:Pin_Header_Straight_1x03" H 16800 10650 50  0001 C CNN
F 3 "" H 16800 10650 50  0000 C CNN
	1    16800 10650
	0    1    1    0   
$EndComp
$Comp
L GND #PWR018
U 1 1 57CFA341
P 16800 10350
F 0 "#PWR018" H 16800 10100 50  0001 C CNN
F 1 "GND" H 16800 10200 50  0000 C CNN
F 2 "" H 16800 10350 50  0000 C CNN
F 3 "" H 16800 10350 50  0000 C CNN
	1    16800 10350
	-1   0    0    1   
$EndComp
$Comp
L +3.3V #PWR019
U 1 1 57CFA347
P 16700 10100
F 0 "#PWR019" H 16700 9950 50  0001 C CNN
F 1 "+3.3V" H 16700 10240 50  0000 C CNN
F 2 "" H 16700 10100 50  0000 C CNN
F 3 "" H 16700 10100 50  0000 C CNN
	1    16700 10100
	1    0    0    -1  
$EndComp
$Comp
L +5V #PWR020
U 1 1 57CFA34D
P 16900 10100
F 0 "#PWR020" H 16900 9950 50  0001 C CNN
F 1 "+5V" H 16900 10240 50  0000 C CNN
F 2 "" H 16900 10100 50  0000 C CNN
F 3 "" H 16900 10100 50  0000 C CNN
	1    16900 10100
	1    0    0    -1  
$EndComp
$Comp
L CONN_01X02 P4
U 1 1 57CFA4FD
P 16750 11600
F 0 "P4" H 16750 11750 50  0000 C CNN
F 1 "V_3v3" V 16850 11600 50  0000 C CNN
F 2 "Pin_Headers:Pin_Header_Straight_1x02" H 16750 11600 50  0001 C CNN
F 3 "" H 16750 11600 50  0000 C CNN
	1    16750 11600
	0    1    1    0   
$EndComp
$Comp
L +3.3V #PWR021
U 1 1 57CFA624
P 16700 11150
F 0 "#PWR021" H 16700 11000 50  0001 C CNN
F 1 "+3.3V" H 16700 11290 50  0000 C CNN
F 2 "" H 16700 11150 50  0000 C CNN
F 3 "" H 16700 11150 50  0000 C CNN
	1    16700 11150
	1    0    0    -1  
$EndComp
$Comp
L GND #PWR022
U 1 1 57CFA665
P 16800 11300
F 0 "#PWR022" H 16800 11050 50  0001 C CNN
F 1 "GND" H 16800 11150 50  0000 C CNN
F 2 "" H 16800 11300 50  0000 C CNN
F 3 "" H 16800 11300 50  0000 C CNN
	1    16800 11300
	-1   0    0    1   
$EndComp
$Comp
L CONN_01X02 P7
U 1 1 57CFA80B
P 17500 11600
F 0 "P7" H 17500 11750 50  0000 C CNN
F 1 "V_3v3" V 17600 11600 50  0000 C CNN
F 2 "Pin_Headers:Pin_Header_Straight_1x02" H 17500 11600 50  0001 C CNN
F 3 "" H 17500 11600 50  0000 C CNN
	1    17500 11600
	0    1    1    0   
$EndComp
$Comp
L +3.3V #PWR023
U 1 1 57CFA811
P 17450 11150
F 0 "#PWR023" H 17450 11000 50  0001 C CNN
F 1 "+3.3V" H 17450 11290 50  0000 C CNN
F 2 "" H 17450 11150 50  0000 C CNN
F 3 "" H 17450 11150 50  0000 C CNN
	1    17450 11150
	1    0    0    -1  
$EndComp
$Comp
L GND #PWR024
U 1 1 57CFA817
P 17550 11300
F 0 "#PWR024" H 17550 11050 50  0001 C CNN
F 1 "GND" H 17550 11150 50  0000 C CNN
F 2 "" H 17550 11300 50  0000 C CNN
F 3 "" H 17550 11300 50  0000 C CNN
	1    17550 11300
	-1   0    0    1   
$EndComp
$Comp
L CONN_01X08 P9
U 1 1 57CFC02E
P 14600 6250
F 0 "P9" H 14600 6700 50  0000 C CNN
F 1 "CONN_IO_B" V 14700 6250 50  0000 C CNN
F 2 "Pin_Headers:Pin_Header_Straight_1x08" H 14600 6250 50  0001 C CNN
F 3 "" H 14600 6250 50  0000 C CNN
	1    14600 6250
	1    0    0    -1  
$EndComp
$Comp
L CONN_01X08 P10
U 1 1 57CFC115
P 14600 7200
F 0 "P10" H 14600 7650 50  0000 C CNN
F 1 "CONN_IO_C" V 14700 7200 50  0000 C CNN
F 2 "Pin_Headers:Pin_Header_Straight_1x08" H 14600 7200 50  0001 C CNN
F 3 "" H 14600 7200 50  0000 C CNN
	1    14600 7200
	1    0    0    -1  
$EndComp
$Comp
L CONN_01X08 P11
U 1 1 57CFC182
P 14600 8150
F 0 "P11" H 14600 8600 50  0000 C CNN
F 1 "CONN_IO_D" V 14700 8150 50  0000 C CNN
F 2 "Pin_Headers:Pin_Header_Straight_1x08" H 14600 8150 50  0001 C CNN
F 3 "" H 14600 8150 50  0000 C CNN
	1    14600 8150
	1    0    0    -1  
$EndComp
$Comp
L GND #PWR025
U 1 1 57CFCE89
P 14300 5900
F 0 "#PWR025" H 14300 5650 50  0001 C CNN
F 1 "GND" H 14300 5750 50  0000 C CNN
F 2 "" H 14300 5900 50  0000 C CNN
F 3 "" H 14300 5900 50  0000 C CNN
	1    14300 5900
	0    1    1    0   
$EndComp
$Comp
L GND #PWR026
U 1 1 57CFCED9
P 14300 6850
F 0 "#PWR026" H 14300 6600 50  0001 C CNN
F 1 "GND" H 14300 6700 50  0000 C CNN
F 2 "" H 14300 6850 50  0000 C CNN
F 3 "" H 14300 6850 50  0000 C CNN
	1    14300 6850
	0    1    1    0   
$EndComp
$Comp
L GND #PWR027
U 1 1 57CFCF29
P 14300 7800
F 0 "#PWR027" H 14300 7550 50  0001 C CNN
F 1 "GND" H 14300 7650 50  0000 C CNN
F 2 "" H 14300 7800 50  0000 C CNN
F 3 "" H 14300 7800 50  0000 C CNN
	1    14300 7800
	0    1    1    0   
$EndComp
Text GLabel 14100 6000 0    60   Input ~ 0
IO_12_touch5
Text GLabel 13350 6100 0    60   Input ~ 0
IO_13_touch4
Text GLabel 14100 6200 0    60   Input ~ 0
IO_14_touch6
Text GLabel 13350 6300 0    60   Input ~ 0
IO_15_touch3
Text GLabel 14100 6400 0    60   Input ~ 0
IO_16
Text GLabel 13350 6500 0    60   Input ~ 0
IO_17
Text GLabel 14100 6600 0    60   Input ~ 0
IO_18
Text GLabel 14100 6950 0    60   Input ~ 0
IO_19
Text GLabel 13350 7050 0    60   Input ~ 0
IO_21
Text GLabel 14100 7150 0    60   Input ~ 0
IO_22
Text GLabel 13350 7250 0    60   Input ~ 0
IO_23
Text GLabel 14100 7350 0    60   Input ~ 0
IO_25
Text GLabel 13350 7450 0    60   Input ~ 0
IO_26
Text GLabel 14150 7550 0    60   Input ~ 0
IO_27_touch7
Text GLabel 14050 7900 0    60   Input ~ 0
IO_32_touch9
Text GLabel 13300 8000 0    60   Input ~ 0
IO_33_touch8
Text GLabel 14050 8100 0    60   Input ~ 0
IO_34
Text GLabel 13300 8200 0    60   Input ~ 0
IO_35
Text GLabel 14050 8300 0    60   Input ~ 0
VN_LNA
Text GLabel 13300 8400 0    60   Input ~ 0
VP_LNA
$Comp
L ESP3212 U2
U 1 1 57D3ED46
P 9700 7150
F 0 "U2" H 9000 8400 60  0000 C CNN
F 1 "ESP3212" H 10200 8400 60  0000 C CNN
F 2 "extra:ESP3212" H 10050 8500 60  0001 C CNN
F 3 "" H 9250 7600 60  0001 C CNN
	1    9700 7150
	-1   0    0    1   
$EndComp
Wire Wire Line
	10800 7250 10700 7250
Wire Wire Line
	10800 7350 10800 7250
Wire Wire Line
	10700 7450 10700 7350
Wire Wire Line
	10700 7550 10700 7500
Wire Wire Line
	14400 8400 13300 8400
Wire Wire Line
	14050 8300 14400 8300
Wire Wire Line
	13300 8200 14400 8200
Wire Wire Line
	14050 8100 14400 8100
Wire Wire Line
	13300 8000 14400 8000
Wire Wire Line
	14050 7900 14400 7900
Wire Wire Line
	14400 6950 14100 6950
Wire Wire Line
	13350 7050 14400 7050
Wire Wire Line
	14400 7150 14100 7150
Wire Wire Line
	13350 7250 14400 7250
Wire Wire Line
	14400 7350 14100 7350
Wire Wire Line
	13350 7450 14400 7450
Wire Wire Line
	14400 7550 14150 7550
Wire Wire Line
	14100 6600 14400 6600
Wire Wire Line
	14400 6500 13350 6500
Wire Wire Line
	14100 6400 14400 6400
Wire Wire Line
	14400 6300 13350 6300
Wire Wire Line
	14100 6200 14400 6200
Wire Wire Line
	14400 6100 13350 6100
Wire Wire Line
	14100 6000 14400 6000
Wire Wire Line
	14300 5900 14400 5900
Wire Wire Line
	14400 6850 14300 6850
Wire Wire Line
	14300 7800 14400 7800
Wire Wire Line
	17550 11400 17550 11300
Wire Wire Line
	17450 11400 17450 11150
Wire Wire Line
	16800 11400 16800 11300
Wire Wire Line
	16700 11400 16700 11150
Wire Wire Line
	16900 10100 16900 10450
Wire Wire Line
	16800 10350 16800 10450
Wire Wire Line
	16700 10450 16700 10100
Wire Wire Line
	17600 10100 17600 10450
Wire Wire Line
	17500 10350 17500 10450
Wire Wire Line
	17400 10450 17400 10100
Wire Wire Line
	3500 7600 3500 6600
Wire Wire Line
	5100 7600 3500 7600
Wire Wire Line
	5100 8500 5100 7600
Wire Wire Line
	3600 7050 3600 6600
Wire Wire Line
	2600 7050 3600 7050
Wire Wire Line
	2600 9000 2600 7050
Wire Wire Line
	3000 9000 2600 9000
Wire Wire Line
	3700 7050 3700 6600
Wire Wire Line
	4000 7050 3700 7050
Wire Wire Line
	4000 7900 4000 7050
Wire Wire Line
	3600 6050 3600 5700
Wire Wire Line
	3000 10050 3000 10150
Wire Wire Line
	3300 10050 3300 10150
Connection ~ 3000 9700
Wire Wire Line
	3000 9750 3000 9700
Connection ~ 3300 9700
Wire Wire Line
	3300 9750 3300 9700
Connection ~ 3900 9700
Connection ~ 9900 9200
Connection ~ 3800 9700
Wire Wire Line
	3800 9500 3800 9700
Connection ~ 6900 6100
Wire Wire Line
	3600 5700 6900 5700
Connection ~ 2950 8850
Wire Wire Line
	2850 8850 2950 8850
Wire Wire Line
	2950 8900 3000 8900
Wire Wire Line
	2950 8800 2950 8900
Wire Wire Line
	3000 8800 2950 8800
Wire Wire Line
	1950 8150 1950 8200
Wire Wire Line
	2450 8400 2450 8150
Wire Wire Line
	2350 8400 2450 8400
Wire Wire Line
	2850 8500 2850 8150
Wire Wire Line
	2850 8500 3000 8500
Wire Wire Line
	4300 4250 4300 7900
Wire Wire Line
	4200 4050 4200 7900
Wire Wire Line
	2350 9700 2350 8800
Wire Wire Line
	2350 9700 3900 9700
Wire Wire Line
	3900 9500 3900 9750
Wire Wire Line
	2350 8600 3000 8600
Wire Wire Line
	2350 8700 3000 8700
Wire Wire Line
	10700 7450 11750 7450
Wire Wire Line
	10800 7350 11350 7350
Wire Wire Line
	11800 7650 11750 7650
Wire Wire Line
	11800 7550 11800 7650
Wire Wire Line
	10700 7550 11800 7550
Connection ~ 11450 8750
Wire Wire Line
	11400 8750 11550 8750
Wire Wire Line
	11100 8750 11050 8750
Connection ~ 10350 9350
Wire Wire Line
	10350 9350 10350 9600
Wire Wire Line
	11650 9350 11650 9250
Wire Wire Line
	11300 9350 11350 9350
Wire Wire Line
	10300 9350 10400 9350
Connection ~ 10000 9200
Wire Wire Line
	10000 9350 10000 9200
Wire Wire Line
	9900 8800 9900 8900
Wire Wire Line
	11450 9200 11300 9200
Wire Wire Line
	11450 7650 11450 9200
Wire Wire Line
	9700 9200 10400 9200
Wire Wire Line
	10700 7650 11450 7650
Wire Wire Line
	6900 5700 6900 6400
Wire Wire Line
	6200 6100 6100 6100
Wire Wire Line
	6900 6100 6800 6100
Wire Wire Line
	7150 6100 7150 6000
Connection ~ 7150 6400
Wire Wire Line
	6900 6400 7350 6400
$Comp
L CP2104 U1
U 1 1 57D3F828
P 4050 8700
F 0 "U1" H 4050 8600 50  0000 C CNN
F 1 "CP2104" H 4050 8800 50  0000 C CNN
F 2 "extra:QFP_24" H 4050 8700 50  0001 C CNN
F 3 "DOCUMENTATION" H 4050 8700 50  0001 C CNN
	1    4050 8700
	1    0    0    -1  
$EndComp
$Comp
L mic5353_3v3 U3
U 1 1 57D3F9FB
P 10850 9250
F 0 "U3" H 10550 9500 50  0000 C CNN
F 1 "mic5353_3v3" H 10850 9450 50  0000 C CNN
F 2 "extra:MT1.6" H 10850 9350 50  0000 C CIN
F 3 "" H 10850 9250 50  0000 C CNN
	1    10850 9250
	1    0    0    -1  
$EndComp
Wire Wire Line
	10850 9550 10850 9650
$Comp
L GND #PWR028
U 1 1 57D3FEC5
P 10850 9650
F 0 "#PWR028" H 10850 9400 50  0001 C CNN
F 1 "GND" H 10850 9500 50  0000 C CNN
F 2 "" H 10850 9650 50  0000 C CNN
F 3 "" H 10850 9650 50  0000 C CNN
	1    10850 9650
	1    0    0    -1  
$EndComp
$Comp
L GND #PWR029
U 1 1 57D40231
P 10700 6300
F 0 "#PWR029" H 10700 6050 50  0001 C CNN
F 1 "GND" H 10700 6150 50  0000 C CNN
F 2 "" H 10700 6300 50  0000 C CNN
F 3 "" H 10700 6300 50  0000 C CNN
	1    10700 6300
	-1   0    0    1   
$EndComp
Wire Wire Line
	10700 6400 10700 6300
$Comp
L GND #PWR030
U 1 1 57D403CD
P 10750 6500
F 0 "#PWR030" H 10750 6250 50  0001 C CNN
F 1 "GND" H 10750 6350 50  0000 C CNN
F 2 "" H 10750 6500 50  0000 C CNN
F 3 "" H 10750 6500 50  0000 C CNN
	1    10750 6500
	0    -1   -1   0   
$EndComp
$Comp
L GND #PWR031
U 1 1 57D4041D
P 10700 6650
F 0 "#PWR031" H 10700 6400 50  0001 C CNN
F 1 "GND" H 10700 6500 50  0000 C CNN
F 2 "" H 10700 6650 50  0000 C CNN
F 3 "" H 10700 6650 50  0000 C CNN
	1    10700 6650
	1    0    0    -1  
$EndComp
Wire Wire Line
	10750 6500 10700 6500
Wire Wire Line
	10700 6650 10700 6600
Text GLabel 9400 5500 1    60   Input ~ 0
IO_4_touch0
Text GLabel 7850 6500 0    60   Input ~ 0
IO_34
Wire Wire Line
	9300 5900 9300 6100
Wire Wire Line
	8750 6500 7850 6500
Wire Wire Line
	7850 6700 8750 6700
Wire Wire Line
	7850 6900 8750 6900
Wire Wire Line
	7850 7100 8750 7100
Wire Wire Line
	8200 7200 8750 7200
Wire Wire Line
	9900 5900 9900 6100
Wire Wire Line
	8750 7400 8200 7400
Wire Wire Line
	8750 7500 8600 7500
Wire Wire Line
	8200 7600 8750 7600
Wire Wire Line
	8750 7700 8600 7700
Wire Wire Line
	8750 7800 8200 7800
Wire Wire Line
	10000 5200 10000 6100
Wire Wire Line
	9700 5900 9700 6100
Wire Wire Line
	9800 5200 9800 6100
Wire Wire Line
	8750 6600 8600 6600
Wire Wire Line
	8600 7000 8750 7000
Wire Wire Line
	9400 6100 9400 5500
Wire Wire Line
	8750 6800 8600 6800
Text GLabel 8600 6800 0    60   Input ~ 0
IO_33_touch8
Wire Wire Line
	9500 6100 9500 6050
Wire Wire Line
	9500 6050 7350 6050
Wire Wire Line
	7350 6050 7350 6400
Wire Wire Line
	4200 4050 11450 4050
Wire Wire Line
	11450 4050 11450 7000
Wire Wire Line
	11450 7000 10700 7000
Wire Wire Line
	10700 7100 11200 7100
Wire Wire Line
	11200 7100 11200 4250
Wire Wire Line
	11200 4250 4300 4250
Text GLabel 14350 8500 0    60   Input ~ 0
IO_4_touch0
Wire Wire Line
	14350 8500 14400 8500
$EndSCHEMATC
