(module connect2mmPitch7pins (layer F.Cu) (tedit 56FA75DA)
  (descr "Through hole pin header, 1x07, 2.00mm pitch, single row")
  (tags "pin header single row")
  (fp_text reference REF** (at 0 -5) (layer F.SilkS)
    (effects (font (size 1 1) (thickness 0.15)))
  )
  (fp_text value Pin_Header_Straight_1x07_Pitch2.00mm (at 0 -3) (layer F.Fab)
    (effects (font (size 1 1) (thickness 0.15)))
  )
  (fp_line (start -1 1) (end 1 1) (layer F.SilkS) (width 0.15))
  (fp_line (start 1 1) (end 1 13) (layer F.SilkS) (width 0.15))
  (fp_line (start 1 13) (end -1 13) (layer F.SilkS) (width 0.15))
  (fp_line (start -1 13) (end -1 1) (layer F.SilkS) (width 0.15))
  (fp_line (start -1.6 -1.6) (end 1.6 -1.6) (layer F.CrtYd) (width 0.05))
  (fp_line (start 1.6 -1.6) (end 1.6 13.6) (layer F.CrtYd) (width 0.05))
  (fp_line (start 1.6 13.6) (end -1.6 13.6) (layer F.CrtYd) (width 0.05))
  (fp_line (start -1.6 13.6) (end -1.6 -1.6) (layer F.CrtYd) (width 0.05))
  (fp_line (start -1.5 0) (end -1.5 -1.5) (layer F.SilkS) (width 0.15))
  (fp_line (start -1.5 -1.5) (end 0 -1.5) (layer F.SilkS) (width 0.15))
  (pad 1 thru_hole rect (at 0 0) (size 1.35 1.35) (drill 0.8) (layers *.Cu *.Mask))
  (pad 2 thru_hole circle (at 0 2) (size 1.35 1.35) (drill 0.8) (layers *.Cu *.Mask))
  (pad 3 thru_hole circle (at 0 4) (size 1.35 1.35) (drill 0.8) (layers *.Cu *.Mask))
  (pad 4 thru_hole circle (at 0 6) (size 1.35 1.35) (drill 0.8) (layers *.Cu *.Mask))
  (pad 5 thru_hole circle (at 0 8) (size 1.35 1.35) (drill 0.8) (layers *.Cu *.Mask))
  (pad 6 thru_hole circle (at 0 10) (size 1.35 1.35) (drill 0.8) (layers *.Cu *.Mask))
  (pad 7 thru_hole circle (at 0 12) (size 1.35 1.35) (drill 0.8) (layers *.Cu *.Mask))
  (model Pin_Headers.3dshapes/Pin_Header_Straight_1x07_Pitch2.00mm.wrl
    (at (xyz 0 0 0))
    (scale (xyz 1 1 1))
    (rotate (xyz 0 0 0))
  )
)
