(module pins7apart0.08in (layer F.Cu) (tedit 57D33605)
  (descr "Through hole pin header")
  (tags "pin header")
  (fp_text reference P7 (at 0 -5.1) (layer F.SilkS)
    (effects (font (size 1 1) (thickness 0.15)))
  )
  (fp_text value pins7apart0_08 (at 0 -3.1) (layer F.Fab)
    (effects (font (size 1 1) (thickness 0.15)))
  )
  (fp_line (start -1.75 -1.75) (end -1.75 29.7) (layer F.CrtYd) (width 0.05))
  (fp_line (start 1.75 -1.75) (end 1.75 29.7) (layer F.CrtYd) (width 0.05))
  (fp_line (start -1.75 -1.75) (end 1.75 -1.75) (layer F.CrtYd) (width 0.05))
  (fp_line (start -1.75 29.7) (end 1.75 29.7) (layer F.CrtYd) (width 0.05))
  (fp_line (start 1.27 1.27) (end 1.27 14.224) (layer F.SilkS) (width 0.15))
  (fp_line (start 1.27 14.224) (end -1.27 14.224) (layer F.SilkS) (width 0.15))
  (fp_line (start -1.27 14.224) (end -1.27 1.143) (layer F.SilkS) (width 0.15))
  (fp_line (start 1.55 -1.55) (end 1.55 0) (layer F.SilkS) (width 0.15))
  (fp_line (start 1.27 1.27) (end -1.27 1.27) (layer F.SilkS) (width 0.15))
  (fp_line (start -1.55 0) (end -1.55 -1.55) (layer F.SilkS) (width 0.15))
  (fp_line (start -1.55 -1.55) (end 1.55 -1.55) (layer F.SilkS) (width 0.15))
  (pad 1 thru_hole rect (at 0 0) (size 2.032 1.524) (drill 0.762) (layers *.Cu *.Mask F.SilkS))
  (pad 2 thru_hole oval (at 0 2.032) (size 2.032 1.524) (drill 0.762) (layers *.Cu *.Mask F.SilkS))
  (pad 3 thru_hole oval (at 0 4.064) (size 2.032 1.524) (drill 1.016) (layers *.Cu *.Mask F.SilkS))
  (pad 4 thru_hole oval (at 0 6.096) (size 2.032 1.524) (drill 1.016) (layers *.Cu *.Mask F.SilkS))
  (pad 5 thru_hole oval (at 0 8.128) (size 2.032 1.524) (drill 1.016) (layers *.Cu *.Mask F.SilkS))
  (pad 6 thru_hole oval (at 0 10.16) (size 2.032 1.524) (drill 1.016) (layers *.Cu *.Mask F.SilkS))
  (pad 7 thru_hole oval (at 0 12.192) (size 2.032 1.524) (drill 1.016) (layers *.Cu *.Mask F.SilkS))
  (model Pin_Headers.3dshapes/Pin_Header_Straight_1x12.wrl
    (at (xyz 0 -0.55 0))
    (scale (xyz 1 1 1))
    (rotate (xyz 0 0 90))
  )
)
