(module QFN_48_MCU (layer F.Cu) (tedit 57D3489D)
  (fp_text reference REF** (at 0 -4.9) (layer F.SilkS)
    (effects (font (size 1.2 1.2) (thickness 0.15)))
  )
  (fp_text value QFN_48_MCU (at 0 4.9) (layer F.Fab)
    (effects (font (size 1.2 1.2) (thickness 0.15)))
  )
  (fp_line (start -3.5 -3.25) (end -3.25 -3.5) (layer F.SilkS) (width 0.15))
  (fp_line (start 3.25 -3.5) (end 3.5 -3.5) (layer F.SilkS) (width 0.15))
  (fp_line (start 3.5 -3.5) (end 3.5 -3.25) (layer F.SilkS) (width 0.15))
  (fp_line (start -3.25 3.5) (end -3.5 3.5) (layer F.SilkS) (width 0.15))
  (fp_line (start -3.5 3.5) (end -3.5 3.25) (layer F.SilkS) (width 0.15))
  (fp_line (start 3.25 3.5) (end 3.5 3.5) (layer F.SilkS) (width 0.15))
  (fp_line (start 3.5 3.5) (end 3.5 3.25) (layer F.SilkS) (width 0.15))
  (fp_line (start -3.7 -3.7) (end 3.7 -3.7) (layer F.CrtYd) (width 0.15))
  (fp_line (start 3.7 -3.7) (end 3.7 3.7) (layer F.CrtYd) (width 0.15))
  (fp_line (start 3.7 3.7) (end -3.7 3.7) (layer F.CrtYd) (width 0.15))
  (fp_line (start -3.7 3.7) (end -3.7 -3.7) (layer F.CrtYd) (width 0.15))
  (pad 1 smd oval (at -3.5 -2.75 90) (size 0.25 0.4) (layers F.Cu F.Paste F.Mask))
  (pad 2 smd oval (at -3.5 -2.25 90) (size 0.25 0.4) (layers F.Cu F.Paste F.Mask))
  (pad 3 smd oval (at -3.5 -1.75 90) (size 0.25 0.4) (layers F.Cu F.Paste F.Mask))
  (pad 4 smd oval (at -3.5 -1.25 90) (size 0.25 0.4) (layers F.Cu F.Paste F.Mask))
  (pad 5 smd oval (at -3.5 -0.75 90) (size 0.25 0.4) (layers F.Cu F.Paste F.Mask))
  (pad 6 smd oval (at -3.5 -0.25 90) (size 0.25 0.4) (layers F.Cu F.Paste F.Mask))
  (pad 7 smd oval (at -3.5 0.25 90) (size 0.25 0.4) (layers F.Cu F.Paste F.Mask))
  (pad 8 smd oval (at -3.5 0.75 90) (size 0.25 0.4) (layers F.Cu F.Paste F.Mask))
  (pad 9 smd oval (at -3.5 1.25 90) (size 0.25 0.4) (layers F.Cu F.Paste F.Mask))
  (pad 10 smd oval (at -3.5 1.75 90) (size 0.25 0.4) (layers F.Cu F.Paste F.Mask))
  (pad 11 smd oval (at -3.5 2.25 90) (size 0.25 0.4) (layers F.Cu F.Paste F.Mask))
  (pad 12 smd oval (at -3.5 2.75 90) (size 0.25 0.4) (layers F.Cu F.Paste F.Mask))
  (pad 13 smd oval (at -2.75 3.5) (size 0.25 0.4) (layers F.Cu F.Paste F.Mask))
  (pad 14 smd oval (at -2.25 3.5) (size 0.25 0.4) (layers F.Cu F.Paste F.Mask))
  (pad 15 smd oval (at -1.75 3.5) (size 0.25 0.4) (layers F.Cu F.Paste F.Mask))
  (pad 16 smd oval (at -1.25 3.5) (size 0.25 0.4) (layers F.Cu F.Paste F.Mask))
  (pad 17 smd oval (at -0.75 3.5) (size 0.25 0.4) (layers F.Cu F.Paste F.Mask))
  (pad 18 smd oval (at -0.25 3.5) (size 0.25 0.4) (layers F.Cu F.Paste F.Mask))
  (pad 19 smd oval (at 0.25 3.5) (size 0.25 0.4) (layers F.Cu F.Paste F.Mask))
  (pad 20 smd oval (at 0.75 3.5) (size 0.25 0.4) (layers F.Cu F.Paste F.Mask))
  (pad 21 smd oval (at 1.25 3.5) (size 0.25 0.4) (layers F.Cu F.Paste F.Mask))
  (pad 22 smd oval (at 1.75 3.5) (size 0.25 0.4) (layers F.Cu F.Paste F.Mask))
  (pad 23 smd oval (at 2.25 3.5) (size 0.25 0.4) (layers F.Cu F.Paste F.Mask))
  (pad 24 smd oval (at 2.75 3.5) (size 0.25 0.4) (layers F.Cu F.Paste F.Mask))
  (pad 25 smd oval (at 3.5 2.75 90) (size 0.25 0.4) (layers F.Cu F.Paste F.Mask))
  (pad 26 smd oval (at 3.5 2.25 90) (size 0.25 0.4) (layers F.Cu F.Paste F.Mask))
  (pad 27 smd oval (at 3.5 1.75 90) (size 0.25 0.4) (layers F.Cu F.Paste F.Mask))
  (pad 28 smd oval (at 3.5 1.25 90) (size 0.25 0.4) (layers F.Cu F.Paste F.Mask))
  (pad 29 smd oval (at 3.5 0.75 90) (size 0.25 0.4) (layers F.Cu F.Paste F.Mask))
  (pad 30 smd oval (at 3.5 0.25 90) (size 0.25 0.4) (layers F.Cu F.Paste F.Mask))
  (pad 31 smd oval (at 3.5 -0.25 90) (size 0.25 0.4) (layers F.Cu F.Paste F.Mask))
  (pad 32 smd oval (at 3.5 -0.75 90) (size 0.25 0.4) (layers F.Cu F.Paste F.Mask))
  (pad 33 smd oval (at 3.5 -1.25 90) (size 0.25 0.4) (layers F.Cu F.Paste F.Mask))
  (pad 34 smd oval (at 3.5 -1.75 90) (size 0.25 0.4) (layers F.Cu F.Paste F.Mask))
  (pad 35 smd oval (at 3.5 -2.25 90) (size 0.25 0.4) (layers F.Cu F.Paste F.Mask))
  (pad 36 smd oval (at 3.5 -2.75 90) (size 0.25 0.4) (layers F.Cu F.Paste F.Mask))
  (pad 37 smd oval (at 2.75 -3.5) (size 0.25 0.4) (layers F.Cu F.Paste F.Mask))
  (pad 38 smd oval (at 2.25 -3.5) (size 0.25 0.4) (layers F.Cu F.Paste F.Mask))
  (pad 39 smd oval (at 1.75 -3.5) (size 0.25 0.4) (layers F.Cu F.Paste F.Mask))
  (pad 40 smd oval (at 1.25 -3.5) (size 0.25 0.4) (layers F.Cu F.Paste F.Mask))
  (pad 41 smd oval (at 0.75 -3.5) (size 0.25 0.4) (layers F.Cu F.Paste F.Mask))
  (pad 42 smd oval (at 0.25 -3.5) (size 0.25 0.4) (layers F.Cu F.Paste F.Mask))
  (pad 43 smd oval (at -0.25 -3.5) (size 0.25 0.4) (layers F.Cu F.Paste F.Mask))
  (pad 44 smd oval (at -0.75 -3.5) (size 0.25 0.4) (layers F.Cu F.Paste F.Mask))
  (pad 45 smd oval (at -1.25 -3.5) (size 0.25 0.4) (layers F.Cu F.Paste F.Mask))
  (pad 46 smd oval (at -1.75 -3.5) (size 0.25 0.4) (layers F.Cu F.Paste F.Mask))
  (pad 47 smd oval (at -2.25 -3.5) (size 0.25 0.4) (layers F.Cu F.Paste F.Mask))
  (pad 48 smd oval (at -2.75 -3.5) (size 0.25 0.4) (layers F.Cu F.Paste F.Mask))
)
